animation{
  name = "walking",
  src_image = "entities/trillium/enemy_projectiles/generic_projectile.png",
  frame_delay = 40,
  frame_to_loop_on = 0,
  directions = {
    { x = 0, y = 80, frame_width = 16, frame_height = 16, origin_x = 8, origin_y = 13, num_frames = 6 },
    { x = 0, y = 80, frame_width = 16, frame_height = 16, origin_x = 8, origin_y = 13, num_frames = 6 },
    { x = 0, y = 80, frame_width = 16, frame_height = 16, origin_x = 8, origin_y = 13, num_frames = 6 },
    { x = 0, y = 80, frame_width = 16, frame_height = 16, origin_x = 8, origin_y = 13, num_frames = 6 },
  },
}